{
  "name": "example",
  "version": "0.3.0",
  "description": "apiDoc basic example",
  "title": "Custom apiDoc browser title",
  "url": "https://localhost:3000",
  "sampleUrl": false,
  "defaultVersion": "0.0.0",
  "apidoc": "0.3.0",
  "generator": {
    "name": "apidoc",
    "time": "2019-01-31T13:46:22.991Z",
    "url": "http://apidocjs.com",
    "version": "0.17.6"
  }
}
